C:\Users\Admin\workspace\Motsach\src\main\java\com\project\form\config\SpringDBConfig.java
C:\Users\Admin\workspace\Motsach\src\main\java\com\project\form\config\WebMVCConfig.java
C:\Users\Admin\workspace\Motsach\src\main\java\com\project\form\dao\BookDaoImpl.java
C:\Users\Admin\workspace\Motsach\src\main\java\com\project\form\web\BookController.java
C:\Users\Admin\workspace\Motsach\src\main\java\com\project\form\service\BookServiceImpl.java
C:\Users\Admin\workspace\Motsach\src\main\java\com\project\form\model\BookDetails.java
C:\Users\Admin\workspace\Motsach\src\main\java\com\project\form\persistence\HibernateUtil.java
C:\Users\Admin\workspace\Motsach\src\main\java\com\project\form\config\SpringWebConfig.java
C:\Users\Admin\workspace\Motsach\src\main\java\com\project\form\model\Book.java
C:\Users\Admin\workspace\Motsach\src\main\java\com\project\form\web\BookDetailsTest.java
C:\Users\Admin\workspace\Motsach\src\main\java\com\project\form\dao\BookDetailsDaoImpl.java
C:\Users\Admin\workspace\Motsach\src\main\java\com\project\form\validator\BookFormValidator.java
C:\Users\Admin\workspace\Motsach\src\main\java\com\project\form\dao\BookDao.java
C:\Users\Admin\workspace\Motsach\src\main\java\com\project\form\exception\GlobalExceptionHandler.java
C:\Users\Admin\workspace\Motsach\src\main\java\com\project\form\service\BookService.java
